[
  { "value": "3d-rotation", "label": "3d-rotation" },
  { "value": "airplane-off", "label": "airplane-off" },
  { "value": "airplane", "label": "airplane" },
  { "value": "album", "label": "album" },
  { "value": "archive", "label": "archive" },
  { "value": "assignment-account", "label": "assignment-account" },
  { "value": "assignment-alert", "label": "assignment-alert" },
  { "value": "assignment-check", "label": "assignment-check" },
  { "value": "assignment-o", "label": "assignment-o" },
  { "value": "assignment-return", "label": "assignment-return" },
  { "value": "assignment-returned", "label": "assignment-returned" },
  { "value": "assignment", "label": "assignment" },
  { "value": "attachment-alt", "label": "attachment-alt" },
  { "value": "attachment", "label": "attachment" },
  { "value": "audio", "label": "audio" },
  { "value": "badge-check", "label": "badge-check" },
  { "value": "balance-wallet", "label": "balance-wallet" },
  { "value": "balance", "label": "balance" },
  { "value": "battery-alert", "label": "battery-alert" },
  { "value": "battery-flash", "label": "battery-flash" },
  { "value": "battery-unknown", "label": "battery-unknown" },
  { "value": "battery", "label": "battery" },
  { "value": "bike", "label": "bike" },
  { "value": "block-alt", "label": "block-alt" },
  { "value": "block", "label": "block" },
  { "value": "boat", "label": "boat" },
  { "value": "book-image", "label": "book-image" },
  { "value": "book", "label": "book" },
  { "value": "bookmark-outline", "label": "bookmark-outline" },
  { "value": "bookmark", "label": "bookmark" },
  { "value": "brush", "label": "brush" },
  { "value": "bug", "label": "bug" },
  { "value": "bus", "label": "bus" },
  { "value": "cake", "label": "cake" },
  { "value": "car-taxi", "label": "car-taxi" },
  { "value": "car-wash", "label": "car-wash" },
  { "value": "car", "label": "car" },
  { "value": "card-giftcard", "label": "card-giftcard" },
  { "value": "card-membership", "label": "card-membership" },
  { "value": "card-travel", "label": "card-travel" },
  { "value": "card", "label": "card" },
  { "value": "case-check", "label": "case-check" },
  { "value": "case-download", "label": "case-download" },
  { "value": "case-play", "label": "case-play" },
  { "value": "case", "label": "case" },
  { "value": "cast-connected", "label": "cast-connected" },
  { "value": "cast", "label": "cast" },
  { "value": "chart-donut", "label": "chart-donut" },
  { "value": "chart", "label": "chart" },
  { "value": "city-alt", "label": "city-alt" },
  { "value": "city", "label": "city" },
  { "value": "close-circle-o", "label": "close-circle-o" },
  { "value": "close-circle", "label": "close-circle" },
  { "value": "close", "label": "close" },
  { "value": "cocktail", "label": "cocktail" },
  { "value": "code-setting", "label": "code-setting" },
  { "value": "code-smartphone", "label": "code-smartphone" },
  { "value": "code", "label": "code" },
  { "value": "coffee", "label": "coffee" },
  { "value": "collection-bookmark", "label": "collection-bookmark" },
  { "value": "collection-case-play", "label": "collection-case-play" },
  { "value": "collection-folder-image", "label": "collection-folder-image" },
  { "value": "collection-image-o", "label": "collection-image-o" },
  { "value": "collection-image", "label": "collection-image" },
  { "value": "collection-item-1", "label": "collection-item-1" },
  { "value": "collection-item-2", "label": "collection-item-2" },
  { "value": "collection-item-3", "label": "collection-item-3" },
  { "value": "collection-item-4", "label": "collection-item-4" },
  { "value": "collection-item-5", "label": "collection-item-5" },
  { "value": "collection-item-6", "label": "collection-item-6" },
  { "value": "collection-item-7", "label": "collection-item-7" },
  { "value": "collection-item-8", "label": "collection-item-8" },
  { "value": "collection-item-9-plus", "label": "collection-item-9-plus" },
  { "value": "collection-item-9", "label": "collection-item-9" },
  { "value": "collection-item", "label": "collection-item" },
  { "value": "collection-music", "label": "collection-music" },
  { "value": "collection-pdf", "label": "collection-pdf" },
  { "value": "collection-plus", "label": "collection-plus" },
  { "value": "collection-speaker", "label": "collection-speaker" },
  { "value": "collection-text", "label": "collection-text" },
  { "value": "collection-video", "label": "collection-video" },
  { "value": "compass", "label": "compass" },
  { "value": "cutlery", "label": "cutlery" },
  { "value": "delete", "label": "delete" },
  { "value": "dialpad", "label": "dialpad" },
  { "value": "dns", "label": "dns" },
  { "value": "drink", "label": "drink" },
  { "value": "edit", "label": "edit" },
  { "value": "email-open", "label": "email-open" },
  { "value": "email", "label": "email" },
  { "value": "eye-off", "label": "eye-off" },
  { "value": "eye", "label": "eye" },
  { "value": "eyedropper", "label": "eyedropper" },
  { "value": "favorite-outline", "label": "favorite-outline" },
  { "value": "favorite", "label": "favorite" },
  { "value": "filter-list", "label": "filter-list" },
  { "value": "fire", "label": "fire" },
  { "value": "flag", "label": "flag" },
  { "value": "flare", "label": "flare" },
  { "value": "flash-auto", "label": "flash-auto" },
  { "value": "flash-off", "label": "flash-off" },
  { "value": "flash", "label": "flash" },
  { "value": "flip", "label": "flip" },
  { "value": "flower-alt", "label": "flower-alt" },
  { "value": "flower", "label": "flower" },
  { "value": "font", "label": "font" },
  { "value": "fullscreen-alt", "label": "fullscreen-alt" },
  { "value": "fullscreen-exit", "label": "fullscreen-exit" },
  { "value": "fullscreen", "label": "fullscreen" },
  { "value": "functions", "label": "functions" },
  { "value": "gas-station", "label": "gas-station" },
  { "value": "gesture", "label": "gesture" },
  { "value": "globe-alt", "label": "globe-alt" },
  { "value": "globe-lock", "label": "globe-lock" },
  { "value": "globe", "label": "globe" },
  { "value": "graduation-cap", "label": "graduation-cap" },
  { "value": "group", "label": "group" },
  { "value": "home", "label": "home" },
  { "value": "hospital-alt", "label": "hospital-alt" },
  { "value": "hospital", "label": "hospital" },
  { "value": "hotel", "label": "hotel" },
  { "value": "hourglass-alt", "label": "hourglass-alt" },
  { "value": "hourglass-outline", "label": "hourglass-outline" },
  { "value": "hourglass", "label": "hourglass" },
  { "value": "http", "label": "http" },
  { "value": "image-alt", "label": "image-alt" },
  { "value": "image-o", "label": "image-o" },
  { "value": "image", "label": "image" },
  { "value": "inbox", "label": "inbox" },
  { "value": "invert-colors-off", "label": "invert-colors-off" },
  { "value": "invert-colors", "label": "invert-colors" },
  { "value": "key", "label": "key" },
  { "value": "label-alt-outline", "label": "label-alt-outline" },
  { "value": "label-alt", "label": "label-alt" },
  { "value": "label-heart", "label": "label-heart" },
  { "value": "label", "label": "label" },
  { "value": "labels", "label": "labels" },
  { "value": "lamp", "label": "lamp" },
  { "value": "landscape", "label": "landscape" },
  { "value": "layers-off", "label": "layers-off" },
  { "value": "layers", "label": "layers" },
  { "value": "library", "label": "library" },
  { "value": "link", "label": "link" },
  { "value": "lock-open", "label": "lock-open" },
  { "value": "lock-outline", "label": "lock-outline" },
  { "value": "lock", "label": "lock" },
  { "value": "mail-reply-all", "label": "mail-reply-all" },
  { "value": "mail-reply", "label": "mail-reply" },
  { "value": "mail-send", "label": "mail-send" },
  { "value": "mall", "label": "mall" },
  { "value": "map", "label": "map" },
  { "value": "menu", "label": "menu" },
  { "value": "money-box", "label": "money-box" },
  { "value": "money-off", "label": "money-off" },
  { "value": "money", "label": "money" },
  { "value": "more-vert", "label": "more-vert" },
  { "value": "more", "label": "more" },
  { "value": "movie-alt", "label": "movie-alt" },
  { "value": "movie", "label": "movie" },
  { "value": "nature-people", "label": "nature-people" },
  { "value": "nature", "label": "nature" },
  { "value": "navigation", "label": "navigation" },
  { "value": "open-in-browser", "label": "open-in-browser" },
  { "value": "open-in-new", "label": "open-in-new" },
  { "value": "palette", "label": "palette" },
  { "value": "parking", "label": "parking" },
  { "value": "pin-account", "label": "pin-account" },
  { "value": "pin-assistant", "label": "pin-assistant" },
  { "value": "pin-drop", "label": "pin-drop" },
  { "value": "pin-help", "label": "pin-help" },
  { "value": "pin-off", "label": "pin-off" },
  { "value": "pin", "label": "pin" },
  { "value": "pizza", "label": "pizza" },
  { "value": "plaster", "label": "plaster" },
  { "value": "power-setting", "label": "power-setting" },
  { "value": "power", "label": "power" },
  { "value": "print", "label": "print" },
  { "value": "puzzle-piece", "label": "puzzle-piece" },
  { "value": "quote", "label": "quote" },
  { "value": "railway", "label": "railway" },
  { "value": "receipt", "label": "receipt" },
  { "value": "refresh-alt", "label": "refresh-alt" },
  { "value": "refresh-sync-alert", "label": "refresh-sync-alert" },
  { "value": "refresh-sync-off", "label": "refresh-sync-off" },
  { "value": "refresh-sync", "label": "refresh-sync" },
  { "value": "refresh", "label": "refresh" },
  { "value": "roller", "label": "roller" },
  { "value": "ruler", "label": "ruler" },
  { "value": "scissors", "label": "scissors" },
  { "value": "screen-rotation-lock", "label": "screen-rotation-lock" },
  { "value": "screen-rotation", "label": "screen-rotation" },
  { "value": "search-for", "label": "search-for" },
  { "value": "search-in-file", "label": "search-in-file" },
  { "value": "search-in-page", "label": "search-in-page" },
  { "value": "search-replace", "label": "search-replace" },
  { "value": "search", "label": "search" },
  { "value": "seat", "label": "seat" },
  { "value": "settings-square", "label": "settings-square" },
  { "value": "settings", "label": "settings" },
  { "value": "shape", "label": "shape" },
  { "value": "shield-check", "label": "shield-check" },
  { "value": "shield-security", "label": "shield-security" },
  { "value": "shopping-basket", "label": "shopping-basket" },
  { "value": "shopping-cart-plus", "label": "shopping-cart-plus" },
  { "value": "shopping-cart", "label": "shopping-cart" },
  { "value": "sign-in", "label": "sign-in" },
  { "value": "sort-amount-asc", "label": "sort-amount-asc" },
  { "value": "sort-amount-desc", "label": "sort-amount-desc" },
  { "value": "sort-asc", "label": "sort-asc" },
  { "value": "sort-desc", "label": "sort-desc" },
  { "value": "spellcheck", "label": "spellcheck" },
  { "value": "spinner", "label": "spinner" },
  { "value": "storage", "label": "storage" },
  { "value": "store-24", "label": "store-24" },
  { "value": "store", "label": "store" },
  { "value": "subway", "label": "subway" },
  { "value": "sun", "label": "sun" },
  { "value": "tab-unselected", "label": "tab-unselected" },
  { "value": "tab", "label": "tab" },
  { "value": "tag-close", "label": "tag-close" },
  { "value": "tag-more", "label": "tag-more" },
  { "value": "tag", "label": "tag" },
  { "value": "thumb-down", "label": "thumb-down" },
  { "value": "thumb-up-down", "label": "thumb-up-down" },
  { "value": "thumb-up", "label": "thumb-up" },
  { "value": "ticket-star", "label": "ticket-star" },
  { "value": "toll", "label": "toll" },
  { "value": "toys", "label": "toys" },
  { "value": "traffic", "label": "traffic" },
  { "value": "translate", "label": "translate" },
  { "value": "triangle-down", "label": "triangle-down" },
  { "value": "triangle-up", "label": "triangle-up" },
  { "value": "truck", "label": "truck" },
  { "value": "turning-sign", "label": "turning-sign" },
  { "value": "ungroup", "label": "ungroup" },
  { "value": "wallpaper", "label": "wallpaper" },
  { "value": "washing-machine", "label": "washing-machine" },
  { "value": "window-maximize", "label": "window-maximize" },
  { "value": "window-minimize", "label": "window-minimize" },
  { "value": "window-restore", "label": "window-restore" },
  { "value": "wrench", "label": "wrench" },
  { "value": "zoom-in", "label": "zoom-in" },
  { "value": "zoom-out", "label": "zoom-out" }
]
